…
Next, use dplyr’s inner_join() function to add the nameFirst and nameLast variables to the initial data frame.

HR_vs_SO<-inner_join(df,Master,by=c("playerID"))%>%
  select(nameFirst,nameLast,career_HR,career_SO)

Finally, add a new column title “name” to the new HR_vs_SO data frame that includes both nameFirst and nameLast.

HR_vs_SO$name<-paste(HR_vs_SO$nameFirst,HR_vs_SO$nameLast)

HR_vs_SO

## # A tibble: 55 x 5
##    nameFirst nameLast career_HR career_SO           name
##        <chr>    <chr>     <int>     <int>          <chr>
##  1      Hank    Aaron       755      1383     Hank Aaron
##  2      Jeff  Bagwell       449      1558   Jeff Bagwell
##  3     Ernie    Banks       512      1236    Ernie Banks
##  4    Adrian   Beltre       445      1584  Adrian Beltre
##  5    Carlos  Beltran       421      1693 Carlos Beltran
##  6     Barry    Bonds       762      1539    Barry Bonds
##  7    Miguel  Cabrera       446      1516 Miguel Cabrera
##  8      Jose  Canseco       462      1942   Jose Canseco
##  9     Andre   Dawson       438      1509   Andre Dawson
## 10    Carlos  Delgado       473      1745 Carlos Delgado
## # ... with 45 more rows
…
